T01 var1
T02 var2
T03 var3
T04 var4
T05 var5
T06 var6
T07 var7
T08 var8
T09 var9
T10 var10
T11 var11
T12 var12
T13 var13
T14 var14
T15 var15
T16 var16
T17 var17
T18 var18
T19 var19
T20 var20
T21 var21
T22 var22
T23 var23
T24 var24
T25 var25
T26 var26
T27 var27
T28 var28
T29 var29
T30 var30
T31 var31
T32 var32
T33 var33
T34 var34
T35 var35
T36 var36
T37 var37
T38 var38
T39 var39
T40 var40
T41 var41
T42 var42
T43 var43
T44 var44
T45 var45
