Date : 2023-06-14 14:20:05
Directory : /home/bryce/Research/bpmn-cwp-verification/code/src/PromelaGeneration
Total : 3 files,  575 codes, 60 comments, 91 blanks, all 726 lines

Languages
+----------+------------+------------+------------+------------+------------+
| language | files      | code       | comment    | blank      | total      |
+----------+------------+------------+------------+------------+------------+
| Python   |          3 |        575 |         60 |         91 |        726 |
+----------+------------+------------+------------+------------+------------+

Directories
+----------------------------------------------------------------------------------------------+------------+------------+------------+------------+------------+
| path                                                                                         | files      | code       | comment    | blank      | total      |
+----------------------------------------------------------------------------------------------+------------+------------+------------+------------+------------+
| .                                                                                            |          3 |        575 |         60 |         91 |        726 |
+----------------------------------------------------------------------------------------------+------------+------------+------------+------------+------------+

Files
+----------------------------------------------------------------------------------------------+----------+------------+------------+------------+------------+
| filename                                                                                     | language | code       | comment    | blank      | total      |
+----------------------------------------------------------------------------------------------+----------+------------+------------+------------+------------+
| /home/bryce/Research/bpmn-cwp-verification/code/src/PromelaGeneration/LTL_gen.py             | Python   |        223 |         18 |         33 |        274 |
| /home/bryce/Research/bpmn-cwp-verification/code/src/PromelaGeneration/Promela_gen_visitor.py | Python   |        264 |         36 |         36 |        336 |
| /home/bryce/Research/bpmn-cwp-verification/code/src/PromelaGeneration/Stub_gen_visitor.py    | Python   |         88 |          6 |         22 |        116 |
| Total                                                                                        |          |        575 |         60 |         91 |        726 |
+----------------------------------------------------------------------------------------------+----------+------------+------------+------------+------------+