T01 var1
T02 var2
T03 var3
T04 var4
T05 var5
T06 var6
T07 var7
T08 var8
T09 var9
T10 var10
T11 var11
T12 var12
T13 var13
T14 var14
T15 var15
T16 var16
T17 var17
T18 var18
T19 var19
T20 var20
T21 var21
T22 var22
T23 var23
T24 var24
T25 var25
T26 var26
T27 var27
T28 var28
T29 var29
T30 var30
T31 var31
T32 var32
T33 var33
T34 var34
T35 var35
T36 var36
T37 var37
T38 var38
T39 var39
T40 var40
T41 var41
T42 var42
T43 var43
T44 var44
T45 var45
T46 var46
T47 var47
T48 var48
T49 var49
T50 var50
T51 var51
T52 var52
T53 var53
T54 var54
T55 var55
T56 var56
T57 var57
T58 var58
T59 var59
T60 var60
T61 var61
T62 var62
T63 var63
T64 var64
T65 var65
T66 var66
T67 var67
T68 var68
T69 var69
T70 var70
T71 var71
T72 var72
T73 var73
T74 var74
T75 var75
T76 var76
T77 var77
T78 var78
T79 var79
T80 var80
T81 var81
T82 var82
T83 var83
T84 var84
T85 var85
T86 var86
T87 var87
T88 var88
T89 var89
T90 var90
T91 var91
T92 var92
T93 var93
T94 var94
T95 var95
