"filename", "language", "Python", "Shell Script", "comment", "blank", "total"
"/home/bryce/Research/bpmn-cwp-verification/code/src/BPMN-Generate/LongScaling.py", "Python", 136, 0, 31, 22, 189
"/home/bryce/Research/bpmn-cwp-verification/code/src/BPMN-Generate/WideScaling.py", "Python", 116, 0, 28, 21, 165
"/home/bryce/Research/bpmn-cwp-verification/code/src/BPMN/BPMN.py", "Python", 173, 0, 4, 42, 219
"/home/bryce/Research/bpmn-cwp-verification/code/src/BPMN_Visitor/BPMN_Visitor.py", "Python", 38, 0, 0, 2, 40
"/home/bryce/Research/bpmn-cwp-verification/code/src/CSVIngest/CSVIngestor.py", "Python", 66, 0, 9, 10, 85
"/home/bryce/Research/bpmn-cwp-verification/code/src/CWP-Generate/LongScaling.py", "Python", 0, 0, 0, 1, 1
"/home/bryce/Research/bpmn-cwp-verification/code/src/CWP-Generate/WideScaling.py", "Python", 25, 0, 0, 6, 31
"/home/bryce/Research/bpmn-cwp-verification/code/src/CWP/CWP.py", "Python", 46, 0, 8, 15, 69
"/home/bryce/Research/bpmn-cwp-verification/code/src/CounterExampleParser/CounterExampleParser.py", "Python", 124, 0, 0, 12, 136
"/home/bryce/Research/bpmn-cwp-verification/code/src/CounterExampleVisualize/BPMNETModifier.py", "Python", 136, 0, 0, 11, 147
"/home/bryce/Research/bpmn-cwp-verification/code/src/CounterExampleVisualize/CWPETModifier.py", "Python", 59, 0, 0, 3, 62
"/home/bryce/Research/bpmn-cwp-verification/code/src/CounterExampleVisualize/CounterExampleXMLGenerator.py", "Python", 122, 0, 12, 15, 149
"/home/bryce/Research/bpmn-cwp-verification/code/src/ExpressionParse/ExpressionParser.py", "Python", 141, 0, 2, 22, 165
"/home/bryce/Research/bpmn-cwp-verification/code/src/PromelaGeneration/LTL_gen.py", "Python", 223, 0, 18, 33, 274
"/home/bryce/Research/bpmn-cwp-verification/code/src/PromelaGeneration/Promela_gen_visitor.py", "Python", 264, 0, 36, 36, 336
"/home/bryce/Research/bpmn-cwp-verification/code/src/PromelaGeneration/Stub_gen_visitor.py", "Python", 88, 0, 6, 22, 116
"/home/bryce/Research/bpmn-cwp-verification/code/src/StateIngest/ActivityModifiesIngest.py", "Python", 13, 0, 0, 1, 14
"/home/bryce/Research/bpmn-cwp-verification/code/src/StateIngest/StateIngestor.py", "Python", 37, 0, 7, 7, 51
"/home/bryce/Research/bpmn-cwp-verification/code/src/Util/genCounterExampleImage.sh", "Shell Script", 0, 8, 2, 4, 14
"/home/bryce/Research/bpmn-cwp-verification/code/src/Util/verify.sh", "Shell Script", 0, 51, 2, 6, 59
"/home/bryce/Research/bpmn-cwp-verification/code/src/XMLIngest/BPMNXMLIngestor.py", "Python", 216, 0, 11, 26, 253
"/home/bryce/Research/bpmn-cwp-verification/code/src/XMLIngest/CWPXMLIngestor.py", "Python", 75, 0, 9, 12, 96
"/home/bryce/Research/bpmn-cwp-verification/code/src/__init__.py", "Python", 0, 0, 0, 1, 1
"/home/bryce/Research/bpmn-cwp-verification/code/src/main.py", "Python", 181, 0, 13, 26, 220
"/home/bryce/Research/bpmn-cwp-verification/code/src/run_all_examples.sh", "Shell Script", 0, 28, 0, 1, 29
"Total", "-", 2279, 87, 198, 357, 2921